{ggdims}
…
## Now let's actually define `dims_listed()` and `vars_unpack`

<details>

</details>

# Applications: tsne, umap, PCA

## compute_tsne, geom_tsne, using [`Rtsne::Rtsne`](https://github.com/jkrijthe/Rtsne)

<details>

```
# A tibble: 149 × 7
        x     y Sepal.Length Sepal.Width Petal.Length Petal.Width dims      
    <dbl> <dbl>        <dbl>       <dbl>        <dbl>       <dbl> <list[1d]>
 1 -10.3  -19.3          5.1         3.5          1.4         0.2 <dbl [4]> 
 2 -11.2  -15.4          4.9         3            1.4         0.2 <dbl [4]> 
 3  -9.61 -14.7          4.7         3.2          1.3         0.2 <dbl [4]> 
 4 -10.1  -14.5          4.6         3.1          1.5         0.2 <dbl [4]> 
 5  -9.57 -19.5          5           3.6          1.4         0.2 <dbl [4]> 
 6  -9.59 -22.1          5.4         3.9          1.7         0.4 <dbl [4]> 
 7  -8.80 -14.9          4.6         3.4          1.4         0.3 <dbl [4]> 
 8  -9.98 -18.2          5           3.4          1.5         0.2 <dbl [4]> 
 9 -10.4  -13.4          4.4         2.9          1.4         0.2 <dbl [4]> 
10 -10.8  -15.9          4.9         3.1          1.5         0.1 <dbl [4]> 
# ℹ 139 more rows
```
…
## A little UMAP using [`umap::umap`](https://github.com/tkonopka/umap)

<details>

```
# A tibble: 150 × 8
       x     y Sepal.Length Sepal.Width Petal.Length Petal.Width color  dims    
   <dbl> <dbl>        <dbl>       <dbl>        <dbl>       <dbl> <fct>  <list[1>
 1  15.7 -4.39          5.1         3.5          1.4         0.2 setosa <dbl[…]>
 2  13.7 -4.54          4.9         3            1.4         0.2 setosa <dbl[…]>
 3  14.1 -5.12          4.7         3.2          1.3         0.2 setosa <dbl[…]>
 4  13.8 -5.22          4.6         3.1          1.5         0.2 setosa <dbl[…]>
 5  15.4 -4.27          5           3.6          1.4         0.2 setosa <dbl[…]>
 6  15.9 -3.28          5.4         3.9          1.7         0.4 setosa <dbl[…]>
 7  14.2 -5.35          4.6         3.4          1.4         0.3 setosa <dbl[…]>
 8  15.3 -4.62          5           3.4          1.5         0.2 setosa <dbl[…]>
 9  13.5 -5.33          4.4         2.9          1.4         0.2 setosa <dbl[…]>
10  13.8 -4.81          4.9         3.1          1.5         0.1 setosa <dbl[…]>
# ℹ 140 more rows
```
…
## A little PCA using `ordr::ordinate`

<details>

```
# A tibble: 150 × 10
     PC1     PC2     PC3      PC4 Sepal.Length Sepal.Width Petal.Length
   <dbl>   <dbl>   <dbl>    <dbl>        <dbl>       <dbl>        <dbl>
 1 -2.26 -0.478   0.127   0.0241           5.1         3.5          1.4
 2 -2.07  0.672   0.234   0.103            4.9         3            1.4
 3 -2.36  0.341  -0.0441  0.0283           4.7         3.2          1.3
 4 -2.29  0.595  -0.0910 -0.0657           4.6         3.1          1.5
 5 -2.38 -0.645  -0.0157 -0.0358           5           3.6          1.4
 6 -2.07 -1.48   -0.0269  0.00659          5.4         3.9          1.7
 7 -2.44 -0.0475 -0.334  -0.0367           4.6         3.4          1.4
 8 -2.23 -0.222   0.0884 -0.0245           5           3.4          1.5
 9 -2.33  1.11   -0.145  -0.0268           4.4         2.9          1.4
10 -2.18  0.467   0.253  -0.0398           4.9         3.1          1.5
# ℹ 140 more rows
# ℹ 3 more variables: Petal.Width <dbl>, color <fct>, dims <list[1d]>
```
…
