…
#' @export
geom_tsne_label0 <- make_constructor(GeomText, 
                                     stat = StatTsneGroup,
                                     perplexity = 30)
```

``` r
iris |> 
  mutate(dims = dims_listed(Sepal.Length, Sepal.Width, 
                Petal.Length, Petal.Width)) |>
  select(dims) |>
  compute_tsne()
#> # A tibble: 149 × 6
#>        x     y Sepal.Length Sepal.Width Petal.Length Petal.Width
#>    <dbl> <dbl>        <dbl>       <dbl>        <dbl>       <dbl>
#>  1 -7.69 -22.0          5.1         3.5          1.4         0.2
#>  2 -6.19 -17.9          4.9         3            1.4         0.2
#>  3 -7.82 -17.5          4.7         3.2          1.3         0.2
#>  4 -7.40 -17.2          4.6         3.1          1.5         0.2
#>  5 -8.37 -22.0          5           3.6          1.4         0.2
#>  6 -8.07 -24.8          5.4         3.9          1.7         0.4
#>  7 -8.66 -17.7          4.6         3.4          1.4         0.3
#>  8 -7.43 -20.9          5           3.4          1.5         0.2
#>  9 -7.35 -16.1          4.4         2.9          1.4         0.2
#> 10 -6.52 -18.4          4.9         3.1          1.5         0.1
#> # ℹ 139 more rows
…
}
```

</details>

``` r
iris |> 
  mutate(dims = 
        dims_listed(Sepal.Length, Sepal.Width, 
                Petal.Length, Petal.Width)) |>
  select(color = Species, dims) |>
  compute_umap()
#> # A tibble: 150 × 8
#>        x     y Sepal.Length Sepal.Width Petal.Length Petal.Width color  dims    
#>    <dbl> <dbl>        <dbl>       <dbl>        <dbl>       <dbl> <fct>  <list[1>
#>  1  16.9  3.41          5.1         3.5          1.4         0.2 setosa <dbl[…]>
#>  2  15.2  3.21          4.9         3            1.4         0.2 setosa <dbl[…]>
#>  3  15.5  2.65          4.7         3.2          1.3         0.2 setosa <dbl[…]>
#>  4  15.3  2.47          4.6         3.1          1.5         0.2 setosa <dbl[…]>
#>  5  16.7  3.47          5           3.6          1.4         0.2 setosa <dbl[…]>
#>  6  17.7  2.83          5.4         3.9          1.7         0.4 setosa <dbl[…]>
#>  7  15.7  2.41          4.6         3.4          1.4         0.3 setosa <dbl[…]>
#>  8  16.5  3.35          5           3.4          1.5         0.2 setosa <dbl[…]>
#>  9  15.0  2.32          4.4         2.9          1.4         0.2 setosa <dbl[…]>
#> 10  15.1  2.89          4.9         3.1          1.5         0.1 setosa <dbl[…]>
#> # ℹ 140 more rows
…
}
```

``` r

iris |> 
  mutate(dims = 
        dims_listed(Sepal.Length, Sepal.Width, 
                    Petal.Length, Petal.Width)) |>
  select(color = Species, dims) |>
  compute_pca_rows() 
#> # A tibble: 150 × 10
#>      PC1     PC2     PC3      PC4 Sepal.Length Sepal.Width Petal.Length
#>    <dbl>   <dbl>   <dbl>    <dbl>        <dbl>       <dbl>        <dbl>
#>  1 -2.26 -0.478   0.127   0.0241           5.1         3.5          1.4
#>  2 -2.07  0.672   0.234   0.103            4.9         3            1.4
#>  3 -2.36  0.341  -0.0441  0.0283           4.7         3.2          1.3
#>  4 -2.29  0.595  -0.0910 -0.0657           4.6         3.1          1.5
#>  5 -2.38 -0.645  -0.0157 -0.0358           5           3.6          1.4
#>  6 -2.07 -1.48   -0.0269  0.00659          5.4         3.9          1.7
#>  7 -2.44 -0.0475 -0.334  -0.0367           4.6         3.4          1.4
#>  8 -2.23 -0.222   0.0884 -0.0245           5           3.4          1.5
#>  9 -2.33  1.11   -0.145  -0.0268           4.4         2.9          1.4
#> 10 -2.18  0.467   0.253  -0.0398           4.9         3.1          1.5
#> # ℹ 140 more rows
#> # ℹ 3 more variables: Petal.Width <dbl>, color <fct>, dims <list[1d]>
```
…
